Getting started • avoncap
…
#>   Pseudomonas fluorescens          39879     1     0
#>   Staphylcoccus                    39853    27     0
#>   Staphylococcus capitis           39806    74     0
#>   Staphylococcus epidermidis       39489   391     0
#>   Staphylococcus hominis           39657   223     0
#>   Streptococcus                    39855    25     0
#>   Streptococcus beta-hemolytic     39779   101     0
#>   Streptococcus pyogenes           39863    17     0
#>   Streptococcus viridans           39880     0     0
#>   Yeast                            39839    41     0
#>   Other                            39065   815     0
#>   <NA>                                 0     0     0
normMicro %>% filter(micro.test_performed=="yes") %>% select(micro.test_type, micro.pathogen) %>% unnest(micro.pathogen) %>% filter(detected=="yes") %>% group_by(pathogen, micro.test_type) %>%
  count() %>% arrange(desc(n))
#> # A tibble: 206 × 3
#> # Groups:   pathogen, micro.test_type [206]
#>    pathogen                   micro.test_type     n
#>    <fct>                      <fct>           <int>
#>  1 Candida                    Sputum            655
#>  2 Haemophilus influenzae     Sputum            522
#>  3 Other                      Blood culture     442
#>  4 Escherichia coli           Blood culture     425
#>  5 Staphylococcus epidermidis Blood culture     380
#>  6 Pseudomonas aeruginosa     Sputum            343
#>  7 Other                      Sputum            263
#>  8 Staphylcoccus aureus       Blood culture     223
#>  9 Staphylococcus hominis     Blood culture     220
#> 10 Staphylcoccus aureus       Sputum            169
#> # ℹ 196 more rows
…
#>   Coronavirus 229E                        86252     6     0
#>   Coronavirus HKU1                        86250     8     0
#>   Coronavirus NL63                        86252     6     0
#>   Coronavirus OC43                        86240    18     0
#>   Middle East Respiratory Syndrome (MERS) 86258     0     0
#>   Bordetella parapertussis (IS1001)       86257     1     0
#>   Bordetella pertussis (ptxP)             86256     2     0
#>   Chlamydia pneumoniae                    86255     3     0
#>   Mycoplasma pneumoniae                   86235    23     0
#>   <NA>                                        0     0     0
normVirol %>% filter(virol.test_performed=="yes") %>% select(virol.test_type, virol.pathogen) %>% unnest(virol.pathogen) %>% filter(detected=="yes") %>% 
  # with(table(pathogen, virol.test_type,  useNA = "always")) %>% 
  group_by(pathogen, virol.test_type) %>%
  count() %>% arrange(desc(n))
#> # A tibble: 61 × 3
#> # Groups:   pathogen, virol.test_type [61]
#>    pathogen                     virol.test_type               n
#>    <fct>                        <fct>                     <int>
#>  1 Covid-19                     PCR - COVID only           9024
#>  2 Covid-19                     POCT Test (Abbott)         5341
#>  3 Covid-19                     PCR Respiratory (Biofire)  1710
#>  4 Covid-19                     PCR Quad Panel              785
#>  5 Human Rhinovirus/Enterovirus PCR Respiratory (Biofire)   549
#>  6 Influenza A                  PCR Respiratory (Biofire)   446
#>  7 Influenza A                  PCR Quad Panel              323
#>  8 Influenza A                  PCR - Respiratory panel     251
#>  9 Human Rhinovirus/Enterovirus PCR - Respiratory panel     246
#> 10 Human Metapneumovirus        PCR Respiratory (Biofire)   245
#> # ℹ 51 more rows
…
