Getting started • avoncap
…
#>   Pseudomonas fluorescens          20789     1     0
#>   Staphylcoccus                    20771    19     0
#>   Staphylococcus capitis           20752    38     0
#>   Staphylococcus epidermidis       20566   224     0
#>   Staphylococcus hominis           20661   129     0
#>   Streptococcus                    20771    19     0
#>   Streptococcus beta-hemolytic     20736    54     0
#>   Streptococcus pyogenes           20782     8     0
#>   Streptococcus viridans           20790     0     0
#>   Yeast                            20758    32     0
#>   Other                            20315   475     0
#>   <NA>                                 0     0     0
normMicro %>% filter(micro.test_performed=="yes") %>% select(micro.test_type, micro.pathogen) %>% unnest(micro.pathogen) %>% filter(detected=="yes") %>% group_by(pathogen, micro.test_type) %>%
  count() %>% arrange(desc(n))
#> # A tibble: 186 × 3
#> # Groups:   pathogen, micro.test_type [186]
#>    pathogen                   micro.test_type      n
#>    <fct>                      <fct>            <int>
#>  1 Candida                    Sputum             318
#>  2 Escherichia coli           Blood culture      271
#>  3 Other                      Blood culture      252
#>  4 Staphylococcus epidermidis Blood culture      215
#>  5 Pseudomonas aeruginosa     Sputum             186
#>  6 Other                      Sputum             143
#>  7 Staphylcoccus aureus       Blood culture      139
#>  8 Haemophilus influenzae     Sputum             138
#>  9 Staphylococcus hominis     Blood culture      128
#> 10 Candida                    Respiratory swab   121
#> # ℹ 176 more rows
…
#>   Coronavirus 229E                        55404     1     0
#>   Coronavirus HKU1                        55404     1     0
#>   Coronavirus NL63                        55405     0     0
#>   Coronavirus OC43                        55405     0     0
#>   Middle East Respiratory Syndrome (MERS) 55405     0     0
#>   Bordetella parapertussis (IS1001)       55403     2     0
#>   Bordetella pertussis (ptxP)             55405     0     0
#>   Chlamydia pneumoniae                    55403     2     0
#>   Mycoplasma pneumoniae                   55405     0     0
#>   <NA>                                        0     0     0
normVirol %>% filter(virol.test_performed=="yes") %>% select(virol.test_type, virol.pathogen) %>% unnest(virol.pathogen) %>% filter(detected=="yes") %>% 
  # with(table(pathogen, virol.test_type,  useNA = "always")) %>% 
  group_by(pathogen, virol.test_type) %>%
  count() %>% arrange(desc(n))
#> # A tibble: 38 × 3
#> # Groups:   pathogen, virol.test_type [38]
#>    pathogen                     virol.test_type               n
#>    <fct>                        <fct>                     <int>
#>  1 Covid-19                     PCR - COVID only           8485
#>  2 Covid-19                     POCT Test (Abbott)         2839
#>  3 Covid-19                     Lateral Flow - COVID only   516
#>  4 Covid-19                     Viral Culture               118
#>  5 Influenza A                  Lateral Flow - COVID only   111
#>  6 Human Rhinovirus/Enterovirus PCR - Respiratory panel     108
#>  7 Covid-19                     PCR - Respiratory panel      60
#>  8 Influenza A                  PCR - Respiratory panel      37
#>  9 Human Metapneumovirus        PCR - Respiratory panel      34
#> 10 RSV                          Lateral Flow - COVID only    30
#> # ℹ 28 more rows
…
