find most recent files of a specific type — most_recent_files • avoncap
…
a list of the file paths to the most up to date files of the given type relevant to each site and study year

    Examples

# devtools::load_all()

avoncap::set_input("~/Data/avoncap")
#> Found data directory: /home/vp22681/Data/avoncap
#> /home/vp22681/Data/avoncap
avoncap::input("nhs-extract")
#> /home/vp22681/Data/avoncap/nhs-extract

avoncap::all_files()
#> # A tibble: 46 × 7
#>    filename     directory      path           date       hospi…¹ study…² filet…³
#>    <chr>        <chr>          <fs::path>     <date>     <chr>     <int> <chr>  
#>  1 central_y1   avoncap-export …entral_y1.csv 2022-03-22 NA            1 csv    
#>  2 central_y2   avoncap-export …entral_y2.csv 2022-03-22 NA            2 csv    
#>  3 central_y1   avoncap-export …entral_y1.csv 2022-06-20 NA            1 csv    
#>  4 central_y2   avoncap-export …entral_y2.csv 2022-06-20 NA            2 csv    
#>  5 central_y1   avoncap-export …entral_y1.csv 2022-07-11 NA            1 csv    
#>  6 central_y2   avoncap-export …entral_y2.csv 2022-07-11 NA            2 csv    
#>  7 central_y1   avoncap-export …entral_y1.csv 2022-09-21 NA            1 csv    
#>  8 central_y2   avoncap-export …entral_y2.csv 2022-09-21 NA            2 csv    
#>  9 uad-controls avoncap-export …-controls.csv 2022-10-07 NA           NA csv    
#> 10 central_y1   avoncap-export …entral_y1.csv 2022-11-09 NA            1 csv    
#> # … with 36 more rows, and abbreviated variable names ¹​hospital, ²​study_year,
#> #   ³​filetype
…
